[
  {
    "Объявление": "Воскресенье",
    "Группа": "",
    "Дата": "26.04.2020"
  },
  {
    "Объявление": "Праздничный день",
    "Группа": "",
    "Дата": "01.05.2020"
  },
  {
    "Объявление": "Выходной день",
    "Группа": "",
    "Дата": "05.05.2020"
  },
  {
    "Объявление": "Праздничный день",
    "Группа": "",
    "Дата": "09.05.2020"
  },
  {
    "Объявление": "Воскресенье",
    "Группа": "",
    "Дата": "03.05.2020"
  },
  {
    "Объявление": "Воскресенье",
    "Группа": "",
    "Дата": "10.05.2020"
  },
  {
    "Объявление": "Выходной день",
    "Группа": "",
    "Дата": "12.06.2020"
  },
  {
    "Объявление": "Воскресенье",
    "Группа": "",
    "Дата": "07.06.2020"
  },
  {
    "Объявление": "Воскресенье",
    "Группа": "",
    "Дата": "14.06.2020"
  },
  {
    "Объявление": "Воскресенье",
    "Группа": "",
    "Дата": "21.06.2020"
  },
  {
    "Объявление": "Воскресенье",
    "Группа": "",
    "Дата": "28.06.2020"
  },
  {
    "Объявление": "Выходной день",
    "Группа": "",
    "Дата": "24.06.2020"
  }
]